999
dxfrw 0.5.10
0
SECTION
2
HEADER
9
$ACADVER
1
AC1021
9
$HANDSEED
5
20000
9
$DWGCODEPAGE
3
ANSI_1252
9
$INSBASE
10
0
20
0
30
0
9
$EXTMIN
10
-109.449720549
20
-119.449731778
30
0
9
$EXTMAX
10
109.449851067
20
109.449704188
30
0
9
$LIMMIN
10
0
20
0
9
$LIMMAX
10
420
20
297
9
$ORTHOMODE
70
0
9
$LTSCALE
40
1
9
$TEXTSTYLE
7
Standard
9
$CLAYER
8
PRINCIPAL
9
$DIMASZ
40
3.302
9
$DIMLFAC
40
1
9
$DIMSCALE
40
1
9
$DIMEXO
40
1
9
$DIMEXE
40
1
9
$DIMTXT
40
3.5
9
$DIMTSZ
40
0
9
$DIMAUNIT
70
0
9
$DIMADEC
70
2
9
$DIMLUNIT
70
2
9
$DIMSTYLE
2
ISO-25
9
$DIMGAP
40
1.524
9
$DIMTIH
70
1
9
$LUNITS
70
2
9
$LUPREC
70
5
9
$AUNITS
70
0
9
$AUPREC
70
2
9
$SPLINESEGS
70
8
9
$GRIDMODE
70
1
9
$SNAPSTYLE
70
0
9
$GRIDUNIT
10
0
20
0
9
$PINSBASE
10
0
20
0
30
0
9
$PLIMMIN
10
0
20
0
9
$PLIMMAX
10
420
20
297
9
$INSUNITS
70
4
9
$PSVPSCALE
40
0
0
ENDSEC
0
SECTION
2
CLASSES
0
ENDSEC
0
SECTION
2
TABLES
0
TABLE
2
VPORT
5
8
330
0
100
AcDbSymbolTable
70
1
0
VPORT
5
31
330
2
100
AcDbSymbolTableRecord
100
AcDbViewportTableRecord
2
*ACTIVE
70
0
10
0
20
0
11
1
21
1
12
105.544408515
22
56.4002933
13
0
23
0
14
10
24
10
15
10
25
10
16
0
26
0
36
1
17
0
27
0
37
0
40
235.495961498
41
1.79131652661
42
50
43
0
44
0
50
0
51
0
71
0
72
100
73
1
74
3
75
0
76
1
77
0
78
0
281
0
65
1
110
0
120
0
130
0
111
1
121
0
131
0
112
0
122
1
132
0
79
0
146
0
348
10020
60
7
61
5
292
1
282
1
141
0
142
0
63
250
421
3358443
0
ENDTAB
0
TABLE
2
LTYPE
5
5
330
0
100
AcDbSymbolTable
70
4
0
LTYPE
5
14
330
5
100
AcDbSymbolTableRecord
100
AcDbLinetypeTableRecord
2
ByBlock
70
0
3

72
65
73
0
40
0
0
LTYPE
5
15
330
5
100
AcDbSymbolTableRecord
100
AcDbLinetypeTableRecord
2
ByLayer
70
0
3

72
65
73
0
40
0
0
LTYPE
5
16
330
5
100
AcDbSymbolTableRecord
100
AcDbLinetypeTableRecord
2
Continuous
70
0
3
Solid line
72
65
73
0
40
0
0
LTYPE
5
32
330
5
100
AcDbSymbolTableRecord
100
AcDbLinetypeTableRecord
2
DOT
70
0
3
Dot . . . . . . . . . . . . . . . . . . . . . .
72
65
73
2
40
6.35
49
0
74
0
49
-6.35
74
0
0
LTYPE
5
33
330
5
100
AcDbSymbolTableRecord
100
AcDbLinetypeTableRecord
2
DOT2
70
0
3
Dot (.5x) .....................................
72
65
73
2
40
3.175
49
0
74
0
49
-3.175
74
0
0
LTYPE
5
34
330
5
100
AcDbSymbolTableRecord
100
AcDbLinetypeTableRecord
2
DOTX2
70
0
3
Dot (2x) .  .  .  .  .  .  .  .  .  .  .  .  .
72
65
73
2
40
12.7
49
0
74
0
49
-12.7
74
0
0
LTYPE
5
35
330
5
100
AcDbSymbolTableRecord
100
AcDbLinetypeTableRecord
2
DASHED
70
0
3
Dot . . . . . . . . . . . . . . . . . . . . . .
72
65
73
2
40
19.05
49
12.7
74
0
49
-6.35
74
0
0
LTYPE
5
36
330
5
100
AcDbSymbolTableRecord
100
AcDbLinetypeTableRecord
2
DASHED2
70
0
3
Dashed (.5x) _ _ _ _ _ _ _ _ _ _ _ _ _ _ _ _ _
72
65
73
2
40
9.525
49
6.35
74
0
49
-3.175
74
0
0
LTYPE
5
37
330
5
100
AcDbSymbolTableRecord
100
AcDbLinetypeTableRecord
2
DASHEDX2
70
0
3
Dashed (2x) ____  ____  ____  ____  ____  ___
72
65
73
2
40
38.1
49
25.4
74
0
49
-12.7
74
0
0
LTYPE
5
38
330
5
100
AcDbSymbolTableRecord
100
AcDbLinetypeTableRecord
2
DASHDOT
70
0
3
Dash dot __ . __ . __ . __ . __ . __ . __ . __
72
65
73
4
40
25.4
49
12.7
74
0
49
-6.35
74
0
49
0
74
0
49
-6.35
74
0
0
LTYPE
5
39
330
5
100
AcDbSymbolTableRecord
100
AcDbLinetypeTableRecord
2
DASHDOT2
70
0
3
Dash dot (.5x) _._._._._._._._._._._._._._._.
72
65
73
4
40
12.7
49
6.35
74
0
49
-3.175
74
0
49
0
74
0
49
-3.175
74
0
0
LTYPE
5
3A
330
5
100
AcDbSymbolTableRecord
100
AcDbLinetypeTableRecord
2
DASHDOTX2
70
0
3
Dash dot (2x) ____  .  ____  .  ____  .  ___
72
65
73
4
40
50.8
49
25.4
74
0
49
-12.7
74
0
49
0
74
0
49
-12.7
74
0
0
LTYPE
5
3B
330
5
100
AcDbSymbolTableRecord
100
AcDbLinetypeTableRecord
2
DIVIDE
70
0
3
Divide ____ . . ____ . . ____ . . ____ . . ____
72
65
73
6
40
31.75
49
12.7
74
0
49
-6.35
74
0
49
0
74
0
49
-6.35
74
0
49
0
74
0
49
-6.35
74
0
0
LTYPE
5
3C
330
5
100
AcDbSymbolTableRecord
100
AcDbLinetypeTableRecord
2
DIVIDE2
70
0
3
Divide (.5x) __..__..__..__..__..__..__..__.._
72
65
73
6
40
15.875
49
6.35
74
0
49
-3.175
74
0
49
0
74
0
49
-3.175
74
0
49
0
74
0
49
-3.175
74
0
0
LTYPE
5
3D
330
5
100
AcDbSymbolTableRecord
100
AcDbLinetypeTableRecord
2
DIVIDEX2
70
0
3
Divide (2x) ________  .  .  ________  .  .  _
72
65
73
6
40
63.5
49
25.4
74
0
49
-12.7
74
0
49
0
74
0
49
-12.7
74
0
49
0
74
0
49
-12.7
74
0
0
LTYPE
5
3E
330
5
100
AcDbSymbolTableRecord
100
AcDbLinetypeTableRecord
2
BORDER
70
0
3
Border __ __ . __ __ . __ __ . __ __ . __ __ .
72
65
73
6
40
44.45
49
12.7
74
0
49
-6.35
74
0
49
12.7
74
0
49
-6.35
74
0
49
0
74
0
49
-6.35
74
0
0
LTYPE
5
3F
330
5
100
AcDbSymbolTableRecord
100
AcDbLinetypeTableRecord
2
BORDER2
70
0
3
Border (.5x) __.__.__.__.__.__.__.__.__.__.__.
72
65
73
6
40
22.225
49
6.35
74
0
49
-3.175
74
0
49
6.35
74
0
49
-3.175
74
0
49
0
74
0
49
-3.175
74
0
0
LTYPE
5
40
330
5
100
AcDbSymbolTableRecord
100
AcDbLinetypeTableRecord
2
BORDERX2
70
0
3
Border (2x) ____  ____  .  ____  ____  .  ___
72
65
73
6
40
88.9
49
25.4
74
0
49
-12.7
74
0
49
25.4
74
0
49
-12.7
74
0
49
0
74
0
49
-12.7
74
0
0
LTYPE
5
41
330
5
100
AcDbSymbolTableRecord
100
AcDbLinetypeTableRecord
2
CENTER
70
0
3
Center ____ _ ____ _ ____ _ ____ _ ____ _ ____
72
65
73
4
40
50.8
49
31.75
74
0
49
-6.35
74
0
49
6.35
74
0
49
-6.35
74
0
0
LTYPE
5
42
330
5
100
AcDbSymbolTableRecord
100
AcDbLinetypeTableRecord
2
CENTER2
70
0
3
Center (.5x) ___ _ ___ _ ___ _ ___ _ ___ _ ___
72
65
73
4
40
28.575
49
19.05
74
0
49
-3.175
74
0
49
3.175
74
0
49
-3.175
74
0
0
LTYPE
5
43
330
5
100
AcDbSymbolTableRecord
100
AcDbLinetypeTableRecord
2
CENTERX2
70
0
3
Center (2x) ________  __  ________  __  _____
72
65
73
4
40
101.6
49
63.5
74
0
49
-12.7
74
0
49
12.7
74
0
49
-12.7
74
0
0
ENDTAB
0
TABLE
2
LAYER
5
2
330
0
100
AcDbSymbolTable
70
1
0
LAYER
5
10
330
2
100
AcDbSymbolTableRecord
100
AcDbLayerTableRecord
2
0
70
0
62
7
6
CONTINUOUS
370
-3
390
F
0
LAYER
5
44
330
2
100
AcDbSymbolTableRecord
100
AcDbLayerTableRecord
2
PRINCIPAL
70
0
62
7
6
CONTINUOUS
370
-3
390
F
0
ENDTAB
0
TABLE
2
STYLE
5
3
330
0
100
AcDbSymbolTable
70
3
0
STYLE
5
45
330
2
100
AcDbSymbolTableRecord
100
AcDbTextStyleTableRecord
2
Standard
70
0
40
0
41
1
50
0
71
0
42
1
3
txt
4

0
ENDTAB
0
TABLE
2
VIEW
5
6
330
0
100
AcDbSymbolTable
70
0
0
ENDTAB
0
TABLE
2
UCS
5
7
330
0
100
AcDbSymbolTable
70
0
0
ENDTAB
0
TABLE
2
APPID
5
9
330
0
100
AcDbSymbolTable
70
1
0
APPID
5
12
330
9
100
AcDbSymbolTableRecord
100
AcDbRegAppTableRecord
2
ACAD
70
0
0
ENDTAB
0
TABLE
2
DIMSTYLE
5
A
330
0
100
AcDbSymbolTable
70
1
100
AcDbDimStyleTable
71
1
0
DIMSTYLE
105
46
330
A
100
AcDbSymbolTableRecord
100
AcDbDimStyleTableRecord
2
Standard
70
0
40
1
41
3.302
42
1
43
0.38
44
1
45
0
46
0
47
0
48
0
140
3.5
141
0.09
142
0
143
25.4
144
1
145
0
146
1
147
1.524
148
0
71
0
72
0
73
0
74
1
75
0
76
0
77
0
78
0
79
0
170
0
171
2
172
0
173
0
174
0
175
0
176
0
177
0
178
0
179
0
271
4
272
4
273
2
274
2
275
0
276
0
277
2
278
46
279
0
280
0
281
0
282
0
283
1
284
0
285
0
286
0
288
0
289
3
340
Standard
341

371
-2
372
-2
0
ENDTAB
0
TABLE
2
BLOCK_RECORD
5
1
330
0
100
AcDbSymbolTable
70
2
0
BLOCK_RECORD
5
1F
330
1
100
AcDbSymbolTableRecord
100
AcDbBlockTableRecord
2
*Model_Space
70
0
280
1
281
0
0
BLOCK_RECORD
5
1E
330
1
100
AcDbSymbolTableRecord
100
AcDbBlockTableRecord
2
*Paper_Space
70
0
280
1
281
0
0
ENDTAB
0
ENDSEC
0
SECTION
2
BLOCKS
0
BLOCK
5
20
330
1F
100
AcDbEntity
8
0
100
AcDbBlockBegin
2
*Model_Space
70
0
10
0
20
0
30
0
3
*Model_Space
1

0
ENDBLK
5
21
330
1F
100
AcDbEntity
8
0
100
AcDbBlockEnd
0
BLOCK
5
1C
330
1B
100
AcDbEntity
8
0
100
AcDbBlockBegin
2
*Paper_Space
70
0
10
0
20
0
30
0
3
*Paper_Space
1

0
ENDBLK
5
1D
330
1F
100
AcDbEntity
8
0
100
AcDbBlockEnd
0
ENDSEC
0
SECTION
2
ENTITIES
0
LINE
5
47
100
AcDbEntity
8
PRINCIPAL
6
CONTINUOUS
62
7
370
-3
100
AcDbLine
10
89.4999459085
20
-46.1839949654
11
89.4999637635
21
-23.8160439614
0
ARC
5
48
100
AcDbEntity
8
PRINCIPAL
6
CONTINUOUS
62
7
370
-3
100
AcDbCircle
10
89.9999459085
20
-46.1839953644
40
0.5
100
AcDbArc
50
179.999954264
51
239.999954264
0
ARC
5
49
100
AcDbEntity
8
PRINCIPAL
6
CONTINUOUS
62
7
370
-3
100
AcDbCircle
10
89.4999452165
20
-47.0500203684
40
0.5
100
AcDbArc
50
210
51
59.999954264
0
ARC
5
4A
100
AcDbEntity
8
PRINCIPAL
6
CONTINUOUS
62
7
370
-3
100
AcDbCircle
10
88.6339198135
20
-47.5500203684
40
0.5
100
AcDbArc
50
30
51
90
0
LINE
5
4B
100
AcDbEntity
8
PRINCIPAL
6
CONTINUOUS
62
7
370
-3
100
AcDbLine
10
81.3659588095
20
-47.0500203684
11
88.6339198135
21
-47.0500203684
0
ARC
5
4C
100
AcDbEntity
8
PRINCIPAL
6
CONTINUOUS
62
7
370
-3
100
AcDbCircle
10
81.3659588095
20
-47.5500203684
40
0.5
100
AcDbArc
50
90
51
150
0
ARC
5
4D
100
AcDbEntity
8
PRINCIPAL
6
CONTINUOUS
62
7
370
-3
100
AcDbCircle
10
80.4999334055
20
-47.0500203684
40
0.5
100
AcDbArc
50
119.999954264
51
330
0
ARC
5
4E
100
AcDbEntity
8
PRINCIPAL
6
CONTINUOUS
62
7
370
-3
100
AcDbCircle
10
79.9999340975
20
-46.1839945664
40
0.5
100
AcDbArc
50
299.999954264
51
359.999954264
0
LINE
5
4F
100
AcDbEntity
8
PRINCIPAL
6
CONTINUOUS
62
7
370
-3
100
AcDbLine
10
80.4999519525
20
-23.8160439614
11
80.4999340975
21
-46.1839949654
0
ARC
5
50
100
AcDbEntity
8
PRINCIPAL
6
CONTINUOUS
62
7
370
-3
100
AcDbCircle
10
79.9999519525
20
-23.8160435624
40
0.499999999998
100
AcDbArc
50
359.999954264
51
59.999954264
0
ARC
5
51
100
AcDbEntity
8
PRINCIPAL
6
CONTINUOUS
62
7
370
-3
100
AcDbCircle
10
80.4999526435
20
-22.9500185574
40
0.5
100
AcDbArc
50
30
51
239.999954264
0
ARC
5
52
100
AcDbEntity
8
PRINCIPAL
6
CONTINUOUS
62
7
370
-3
100
AcDbCircle
10
81.3659780475
20
-22.4500185574
40
0.5
100
AcDbArc
50
210
51
270
0
LINE
5
53
100
AcDbEntity
8
PRINCIPAL
6
CONTINUOUS
62
7
370
-3
100
AcDbLine
10
88.6339390505
20
-22.9500185574
11
81.3659780475
21
-22.9500185574
0
ARC
5
54
100
AcDbEntity
8
PRINCIPAL
6
CONTINUOUS
62
7
370
-3
100
AcDbCircle
10
88.6339390505
20
-22.4500185574
40
0.5
100
AcDbArc
50
270
51
330
0
ARC
5
55
100
AcDbEntity
8
PRINCIPAL
6
CONTINUOUS
62
7
370
-3
100
AcDbCircle
10
89.4999644545
20
-22.9500185574
40
0.5
100
AcDbArc
50
299.999954264
51
150
0
ARC
5
56
100
AcDbEntity
8
PRINCIPAL
6
CONTINUOUS
62
7
370
-3
100
AcDbCircle
10
89.9999637635
20
-23.8160443604
40
0.499999999998
100
AcDbArc
50
119.999954264
51
179.999954264
0
LINE
5
57
100
AcDbEntity
8
PRINCIPAL
6
CONTINUOUS
62
7
370
-3
100
AcDbLine
10
32.7331493945
20
32.9331223728
11
63.5331559075
21
63.7331290843
0
ARC
5
58
100
AcDbEntity
8
PRINCIPAL
6
CONTINUOUS
62
7
370
-3
100
AcDbCircle
10
28.0662458275
20
37.6000259091
40
6.59999829647
100
AcDbArc
50
270
51
315.000000184
0
LINE
5
59
100
AcDbEntity
8
PRINCIPAL
6
CONTINUOUS
62
7
370
-3
100
AcDbLine
10
-28.0661194547
20
31.0000276126
11
28.0662458275
21
31.0000276126
0
ARC
5
5A
100
AcDbEntity
8
PRINCIPAL
6
CONTINUOUS
62
7
370
-3
100
AcDbCircle
10
-28.0661194547
20
37.6000259091
40
6.59999829647
100
AcDbArc
50
224.999999816
51
270
0
LINE
5
5B
100
AcDbEntity
8
PRINCIPAL
6
CONTINUOUS
62
7
370
-3
100
AcDbLine
10
-63.5330295345
20
63.7331290843
11
-32.7330230209
21
32.9331223728
0
ARC
5
5C
100
AcDbEntity
8
PRINCIPAL
6
CONTINUOUS
62
7
370
-3
100
AcDbCircle
10
-58.8661259683
20
68.4000326205
40
6.59999829647
100
AcDbArc
50
90
51
224.999999816
0
LINE
5
5D
100
AcDbEntity
8
PRINCIPAL
6
CONTINUOUS
62
7
370
-3
100
AcDbLine
10
58.8662523415
20
75.000030917
11
-58.8661259683
21
75.000030917
0
ARC
5
5E
100
AcDbEntity
8
PRINCIPAL
6
CONTINUOUS
62
7
370
-3
100
AcDbCircle
10
58.8662523415
20
68.4000326205
40
6.59999829647
100
AcDbArc
50
315.000000184
51
90
0
LINE
5
5F
100
AcDbEntity
8
PRINCIPAL
6
CONTINUOUS
62
7
370
-3
100
AcDbLine
10
21.7574093295
20
-6.75737190042
11
38.2426590445
21
-23.2426485904
0
ARC
5
60
100
AcDbEntity
8
PRINCIPAL
6
CONTINUOUS
62
7
370
-3
100
AcDbCircle
10
26.0000541955
20
-2.51473397742
40
6.000001
100
AcDbArc
50
180
51
224.999953122
0
LINE
5
61
100
AcDbEntity
8
PRINCIPAL
6
CONTINUOUS
62
7
370
-3
100
AcDbLine
10
20.0000531955
20
2.51471510258
11
20.0000531955
21
-2.51473397742
0
ARC
5
62
100
AcDbEntity
8
PRINCIPAL
6
CONTINUOUS
62
7
370
-3
100
AcDbCircle
10
26.0000541955
20
2.51471510258
40
6.000001
100
AcDbArc
50
134.999935886
51
180
0
LINE
5
63
100
AcDbEntity
8
PRINCIPAL
6
CONTINUOUS
62
7
370
-3
100
AcDbLine
10
38.2426991975
20
23.2426059994
11
21.7574175485
21
6.75736124458
0
ARC
5
64
100
AcDbEntity
8
PRINCIPAL
6
CONTINUOUS
62
7
370
-3
100
AcDbCircle
10
42.4853358445
20
18.9999598576
40
6.000001
100
AcDbArc
50
90
51
134.999935886
0
LINE
5
65
100
AcDbEntity
8
PRINCIPAL
6
CONTINUOUS
62
7
370
-3
100
AcDbLine
10
57.5147595835
20
24.9999608576
11
42.4853358445
21
24.9999608576
0
ARC
5
66
100
AcDbEntity
8
PRINCIPAL
6
CONTINUOUS
62
7
370
-3
100
AcDbCircle
10
57.5147595835
20
18.9999598576
40
6.000001
100
AcDbArc
50
44.999953122
51
90
0
LINE
5
67
100
AcDbEntity
8
PRINCIPAL
6
CONTINUOUS
62
7
370
-3
100
AcDbLine
10
78.2426541635
20
6.75732109058
11
61.7574044495
21
23.2425977806
0
ARC
5
68
100
AcDbEntity
8
PRINCIPAL
6
CONTINUOUS
62
7
370
-3
100
AcDbCircle
10
74.0000092975
20
2.51468316758
40
6.000001
100
AcDbArc
50
360
51
44.999953122
0
LINE
5
69
100
AcDbEntity
8
PRINCIPAL
6
CONTINUOUS
62
7
370
-3
100
AcDbLine
10
80.0000102975
20
-2.51476591242
11
80.0000102975
21
2.51468316758
0
ARC
5
6A
100
AcDbEntity
8
PRINCIPAL
6
CONTINUOUS
62
7
370
-3
100
AcDbCircle
10
74.0000092975
20
-2.51476591242
40
6.000001
100
AcDbArc
50
314.999935886
51
360
0
LINE
5
6B
100
AcDbEntity
8
PRINCIPAL
6
CONTINUOUS
62
7
370
-3
100
AcDbLine
10
61.7573642955
20
-23.2426568094
11
78.2426459445
21
-6.75741205442
0
ARC
5
6C
100
AcDbEntity
8
PRINCIPAL
6
CONTINUOUS
62
7
370
-3
100
AcDbCircle
10
57.5147276485
20
-19.0000106674
40
6.000001
100
AcDbArc
50
270
51
314.999935886
0
LINE
5
6D
100
AcDbEntity
8
PRINCIPAL
6
CONTINUOUS
62
7
370
-3
100
AcDbLine
10
42.4853039095
20
-25.0000116674
11
57.5147276485
21
-25.0000116674
0
ARC
5
6E
100
AcDbEntity
8
PRINCIPAL
6
CONTINUOUS
62
7
370
-3
100
AcDbCircle
10
42.4853039095
20
-19.0000106674
40
6.000001
100
AcDbArc
50
224.999953122
51
270
0
LINE
5
6F
100
AcDbEntity
8
PRINCIPAL
6
CONTINUOUS
62
7
370
-3
100
AcDbLine
10
63.5331633845
20
-63.7330881104
11
32.7331568715
21
-32.9330813984
0
ARC
5
70
100
AcDbEntity
8
PRINCIPAL
6
CONTINUOUS
62
7
370
-3
100
AcDbCircle
10
58.8662598185
20
-68.3999916464
40
6.59999829647
100
AcDbArc
50
270
51
44.999999816
0
LINE
5
71
100
AcDbEntity
8
PRINCIPAL
6
CONTINUOUS
62
7
370
-3
100
AcDbLine
10
-58.8661184911
20
-74.9999899424
11
58.8662598185
21
-74.9999899424
0
ARC
5
72
100
AcDbEntity
8
PRINCIPAL
6
CONTINUOUS
62
7
370
-3
100
AcDbCircle
10
-58.8661184911
20
-68.3999916464
40
6.59999829647
100
AcDbArc
50
135.000000184
51
270
0
LINE
5
73
100
AcDbEntity
8
PRINCIPAL
6
CONTINUOUS
62
7
370
-3
100
AcDbLine
10
-32.7330155437
20
-32.9330813984
11
-63.5330220574
21
-63.7330881104
0
ARC
5
74
100
AcDbEntity
8
PRINCIPAL
6
CONTINUOUS
62
7
370
-3
100
AcDbCircle
10
-28.0661119775
20
-37.5999849344
40
6.59999829647
100
AcDbArc
50
90
51
135.000000184
0
LINE
5
75
100
AcDbEntity
8
PRINCIPAL
6
CONTINUOUS
62
7
370
-3
100
AcDbLine
10
28.0662533045
20
-30.9999866384
11
-28.0661119775
21
-30.9999866384
0
ARC
5
76
100
AcDbEntity
8
PRINCIPAL
6
CONTINUOUS
62
7
370
-3
100
AcDbCircle
10
28.0662533045
20
-37.5999849344
40
6.59999829647
100
AcDbArc
50
44.999999816
51
90
0
ARC
5
77
100
AcDbEntity
8
PRINCIPAL
6
CONTINUOUS
62
7
370
-3
100
AcDbCircle
10
-95.9999676103
20
65.4852541216
40
6.000001
100
AcDbArc
50
314.999991382
51
360
0
LINE
5
78
100
AcDbEntity
8
PRINCIPAL
6
CONTINUOUS
62
7
370
-3
100
AcDbLine
10
-91.7573268542
20
61.2426120892
11
-106.242612033
21
46.7573312679
0
ARC
5
79
100
AcDbEntity
8
PRINCIPAL
6
CONTINUOUS
62
7
370
-3
100
AcDbCircle
10
-101.999971277
20
42.5146892356
40
6.000001
100
AcDbArc
50
134.999991382
51
180
0
LINE
5
7A
100
AcDbEntity
8
PRINCIPAL
6
CONTINUOUS
62
7
370
-3
100
AcDbLine
10
-107.999972277
20
42.5146892356
11
-107.999972277
21
25.4852640211
0
ARC
5
7B
100
AcDbEntity
8
PRINCIPAL
6
CONTINUOUS
62
7
370
-3
100
AcDbCircle
10
-101.999971277
20
25.4852640211
40
6.000001
100
AcDbArc
50
180
51
225.000008618
0
LINE
5
7C
100
AcDbEntity
8
PRINCIPAL
6
CONTINUOUS
62
7
370
-3
100
AcDbLine
10
-106.242612033
20
21.2426219887
11
-91.7573268542
21
6.75734116758
0
ARC
5
7D
100
AcDbEntity
8
PRINCIPAL
6
CONTINUOUS
62
7
370
-3
100
AcDbCircle
10
-95.9999676103
20
2.51469913458
40
6.000001
100
AcDbArc
50
360
51
45.000008618
0
LINE
5
7E
100
AcDbEntity
8
PRINCIPAL
6
CONTINUOUS
62
7
370
-3
100
AcDbLine
10
-89.9999666103
20
2.51469913458
11
-89.9999666103
21
-2.51474994442
0
ARC
5
7F
100
AcDbEntity
8
PRINCIPAL
6
CONTINUOUS
62
7
370
-3
100
AcDbCircle
10
-95.9999676103
20
-2.51474994442
40
6.000001
100
AcDbArc
50
314.999991382
51
360
0
LINE
5
80
100
AcDbEntity
8
PRINCIPAL
6
CONTINUOUS
62
7
370
-3
100
AcDbLine
10
-91.7573268542
20
-6.75739197742
11
-106.242612033
21
-21.2426727984
0
ARC
5
81
100
AcDbEntity
8
PRINCIPAL
6
CONTINUOUS
62
7
370
-3
100
AcDbCircle
10
-101.999971277
20
-25.4853148304
40
6.000001
100
AcDbArc
50
134.999991382
51
180
0
LINE
5
82
100
AcDbEntity
8
PRINCIPAL
6
CONTINUOUS
62
7
370
-3
100
AcDbLine
10
-107.999972277
20
-25.4853148304
11
-107.999972277
21
-42.5147400454
0
ARC
5
83
100
AcDbEntity
8
PRINCIPAL
6
CONTINUOUS
62
7
370
-3
100
AcDbCircle
10
-101.999971277
20
-42.5147400454
40
6.000001
100
AcDbArc
50
180
51
225.000008618
0
LINE
5
84
100
AcDbEntity
8
PRINCIPAL
6
CONTINUOUS
62
7
370
-3
100
AcDbLine
10
-106.242612033
20
-46.7573820774
11
-91.7573268542
21
-61.2426628994
0
ARC
5
85
100
AcDbEntity
8
PRINCIPAL
6
CONTINUOUS
62
7
370
-3
100
AcDbCircle
10
-95.9999676103
20
-65.4853049314
40
6.000001
100
AcDbArc
50
360
51
45.000008618
0
LINE
5
86
100
AcDbEntity
8
PRINCIPAL
6
CONTINUOUS
62
7
370
-3
100
AcDbLine
10
-89.9999666103
20
-65.4853049314
11
-89.9999666103
21
-80.5147286704
0
ARC
5
87
100
AcDbEntity
8
PRINCIPAL
6
CONTINUOUS
62
7
370
-3
100
AcDbCircle
10
-95.9999676103
20
-80.5147286704
40
6.000001
100
AcDbArc
50
314.999984589
51
360
0
LINE
5
88
100
AcDbEntity
8
PRINCIPAL
6
CONTINUOUS
62
7
370
-3
100
AcDbLine
10
-91.7573273572
20
-84.7573712064
11
-107.999972277
21
-101.000007388
0
ARC
5
89
100
AcDbEntity
8
PRINCIPAL
6
CONTINUOUS
62
7
370
-3
100
AcDbCircle
10
-104.499973549
20
-104.500007998
40
4.949747
100
AcDbArc
50
134.999984589
51
314.999984589
0
LINE
5
8A
100
AcDbEntity
8
PRINCIPAL
6
CONTINUOUS
62
7
370
-3
100
AcDbLine
10
-100.999974822
20
-108.000008608
11
-79.7572945814
21
-86.7573397954
0
ARC
5
8B
100
AcDbEntity
8
PRINCIPAL
6
CONTINUOUS
62
7
370
-3
100
AcDbCircle
10
-75.5146543283
20
-90.9999823304
40
6.000001
100
AcDbArc
50
90
51
134.999984589
0
LINE
5
8C
100
AcDbEntity
8
PRINCIPAL
6
CONTINUOUS
62
7
370
-3
100
AcDbLine
10
-75.5146543283
20
-84.9999813304
11
-14.9496816419
21
-84.9999813304
0
ARC
5
8D
100
AcDbEntity
8
PRINCIPAL
6
CONTINUOUS
62
7
370
-3
100
AcDbCircle
10
-14.9496816419
20
-94.9999812314
40
9.99999990081
100
AcDbArc
50
360
51
90
0
LINE
5
8E
100
AcDbEntity
8
PRINCIPAL
6
CONTINUOUS
62
7
370
-3
100
AcDbLine
10
-4.94968174151
20
-94.9999812314
11
-4.94968174151
21
-114.499984778
0
ARC
5
8F
100
AcDbEntity
8
PRINCIPAL
6
CONTINUOUS
62
7
370
-3
100
AcDbCircle
10
6.52584946226e-05
20
-114.499984778
40
4.949747
100
AcDbArc
50
180
51
360
0
LINE
5
90
100
AcDbEntity
8
PRINCIPAL
6
CONTINUOUS
62
7
370
-3
100
AcDbLine
10
4.94981225849
20
-114.499984778
11
4.94981225849
21
-94.9999812314
0
ARC
5
91
100
AcDbEntity
8
PRINCIPAL
6
CONTINUOUS
62
7
370
-3
100
AcDbCircle
10
14.9498121595
20
-94.9999812314
40
9.99999990081
100
AcDbArc
50
90
51
180
0
LINE
5
92
100
AcDbEntity
8
PRINCIPAL
6
CONTINUOUS
62
7
370
-3
100
AcDbLine
10
14.9498121595
20
-84.9999813304
11
75.5147848465
21
-84.9999813304
0
ARC
5
93
100
AcDbEntity
8
PRINCIPAL
6
CONTINUOUS
62
7
370
-3
100
AcDbCircle
10
75.5147848465
20
-90.9999823304
40
6.000001
100
AcDbArc
50
45.000015411
51
90
0
LINE
5
94
100
AcDbEntity
8
PRINCIPAL
6
CONTINUOUS
62
7
370
-3
100
AcDbLine
10
79.7574250995
20
-86.7573397954
11
101.000105339
21
-108.000008608
0
ARC
5
95
100
AcDbEntity
8
PRINCIPAL
6
CONTINUOUS
62
7
370
-3
100
AcDbCircle
10
104.500104067
20
-104.500007998
40
4.949747
100
AcDbArc
50
225.000015411
51
45.000015411
0
LINE
5
96
100
AcDbEntity
8
PRINCIPAL
6
CONTINUOUS
62
7
370
-3
100
AcDbLine
10
108.000102794
20
-101.000007388
11
91.7573865195
21
-84.7572998504
0
ARC
5
97
100
AcDbEntity
8
PRINCIPAL
6
CONTINUOUS
62
7
370
-3
100
AcDbCircle
10
96.0000267725
20
-80.5146573154
40
6.000001
100
AcDbArc
50
180
51
225.000015411
0
LINE
5
98
100
AcDbEntity
8
PRINCIPAL
6
CONTINUOUS
62
7
370
-3
100
AcDbLine
10
90.0000257725
20
-80.5146573154
11
90.0000257725
21
-65.4853629634
0
ARC
5
99
100
AcDbEntity
8
PRINCIPAL
6
CONTINUOUS
62
7
370
-3
100
AcDbCircle
10
96.0000267725
20
-65.4853629634
40
6.000001
100
AcDbArc
50
135.000075658
51
180
0
LINE
5
9A
100
AcDbEntity
8
PRINCIPAL
6
CONTINUOUS
62
7
370
-3
100
AcDbLine
10
91.7573797755
20
-61.2427271714
11
106.242643648
21
-46.7574250444
0
ARC
5
9B
100
AcDbEntity
8
PRINCIPAL
6
CONTINUOUS
62
7
370
-3
100
AcDbCircle
10
101.999996651
20
-42.5147892524
40
6.000001
100
AcDbArc
50
315.000075658
51
359.999952785
0
LINE
5
9C
100
AcDbEntity
8
PRINCIPAL
6
CONTINUOUS
62
7
370
-3
100
AcDbLine
10
107.999997651
20
-42.5147941964
11
108.000011685
21
-25.4853689824
0
ARC
5
9D
100
AcDbEntity
8
PRINCIPAL
6
CONTINUOUS
62
7
370
-3
100
AcDbCircle
10
102.000010685
20
-25.4853640374
40
6.000001
100
AcDbArc
50
359.999952785
51
44.999953122
0
LINE
5
9E
100
AcDbEntity
8
PRINCIPAL
6
CONTINUOUS
62
7
370
-3
100
AcDbLine
10
106.24265555
20
-21.2427261154
11
91.7573844025
21
-6.75743126342
0
ARC
5
9F
100
AcDbEntity
8
PRINCIPAL
6
CONTINUOUS
62
7
370
-3
100
AcDbCircle
10
96.0000292675
20
-2.51479334042
40
6.00000224759
100
AcDbArc
50
180
51
224.999953122
0
LINE
5
A0
100
AcDbEntity
8
PRINCIPAL
6
CONTINUOUS
62
7
370
-3
100
AcDbLine
10
90.0000270205
20
-2.51479334042
11
90.0000257725
21
2.51465573958
0
ARC
5
A1
100
AcDbEntity
8
PRINCIPAL
6
CONTINUOUS
62
7
370
-3
100
AcDbCircle
10
96.0000267725
20
2.51465573958
40
6.000001
100
AcDbArc
50
134.999935886
51
180
0
LINE
5
A2
100
AcDbEntity
8
PRINCIPAL
6
CONTINUOUS
62
7
370
-3
100
AcDbLine
10
91.7573901255
20
6.75730188158
11
106.242689334
21
21.2425686723
0
ARC
5
A3
100
AcDbEntity
8
PRINCIPAL
6
CONTINUOUS
62
7
370
-3
100
AcDbCircle
10
102.000052688
20
25.485214814
40
6.000001
100
AcDbArc
50
314.999935886
51
359.999952785
0
LINE
5
A4
100
AcDbEntity
8
PRINCIPAL
6
CONTINUOUS
62
7
370
-3
100
AcDbLine
10
108.000053688
20
25.4852098696
11
108.000067721
21
42.5146350841
0
ARC
5
A5
100
AcDbEntity
8
PRINCIPAL
6
CONTINUOUS
62
7
370
-3
100
AcDbCircle
10
102.000066721
20
42.5146400285
40
6.000001
100
AcDbArc
50
359.999952785
51
45.000099117
0
LINE
5
A6
100
AcDbEntity
8
PRINCIPAL
6
CONTINUOUS
62
7
370
-3
100
AcDbLine
10
106.242700776
20
46.7572887622
11
91.7573927175
21
61.2425467037
0
ARC
5
A7
100
AcDbEntity
8
PRINCIPAL
6
CONTINUOUS
62
7
370
-3
100
AcDbCircle
10
96.0000267725
20
65.4851954374
40
6.000001
100
AcDbArc
50
180
51
225.000099117
0
LINE
5
A8
100
AcDbEntity
8
PRINCIPAL
6
CONTINUOUS
62
7
370
-3
100
AcDbLine
10
90.0000257725
20
65.4851954374
11
90.0000257725
21
80.5146065053
0
ARC
5
A9
100
AcDbEntity
8
PRINCIPAL
6
CONTINUOUS
62
7
370
-3
100
AcDbCircle
10
96.0000267725
20
80.5146065053
40
6.000001
100
AcDbArc
50
134.999984589
51
180
0
LINE
5
AA
100
AcDbEntity
8
PRINCIPAL
6
CONTINUOUS
62
7
370
-3
100
AcDbLine
10
91.7573865195
20
84.7572490406
11
108.000102794
21
100.999956578
0
ARC
5
AB
100
AcDbEntity
8
PRINCIPAL
6
CONTINUOUS
62
7
370
-3
100
AcDbCircle
10
104.500104067
20
104.499957188
40
4.949747
100
AcDbArc
50
314.999984589
51
134.999984589
0
LINE
5
AC
100
AcDbEntity
8
PRINCIPAL
6
CONTINUOUS
62
7
370
-3
100
AcDbLine
10
101.000105339
20
107.999957799
11
79.7574250995
21
86.7572889855
0
ARC
5
AD
100
AcDbEntity
8
PRINCIPAL
6
CONTINUOUS
62
7
370
-3
100
AcDbCircle
10
75.5147848465
20
90.9999315209
40
6.000001
100
AcDbArc
50
270
51
314.999984589
0
ARC
5
AE
100
AcDbEntity
8
PRINCIPAL
6
CONTINUOUS
62
7
370
-3
100
AcDbCircle
10
-75.5146543283
20
90.9999315209
40
6.000001
100
AcDbArc
50
225.000015411
51
270
0
LINE
5
AF
100
AcDbEntity
8
PRINCIPAL
6
CONTINUOUS
62
7
370
-3
100
AcDbLine
10
-79.7572945814
20
86.7572889855
11
-100.999974822
21
107.999957799
0
ARC
5
B0
100
AcDbEntity
8
PRINCIPAL
6
CONTINUOUS
62
7
370
-3
100
AcDbCircle
10
-104.499973549
20
104.499957188
40
4.949747
100
AcDbArc
50
45.000015411
51
225.000015411
0
LINE
5
B1
100
AcDbEntity
8
PRINCIPAL
6
CONTINUOUS
62
7
370
-3
100
AcDbLine
10
-107.999972277
20
100.999956578
11
-91.7573273572
21
84.7573203961
0
ARC
5
B2
100
AcDbEntity
8
PRINCIPAL
6
CONTINUOUS
62
7
370
-3
100
AcDbCircle
10
-95.9999676103
20
80.5146778608
40
6.000001
100
AcDbArc
50
360
51
45.000015411
0
LINE
5
B3
100
AcDbEntity
8
PRINCIPAL
6
CONTINUOUS
62
7
370
-3
100
AcDbLine
10
-89.9999666103
20
80.5146778608
11
-89.9999666103
21
65.4852541216
0
LINE
5
B4
100
AcDbEntity
8
PRINCIPAL
6
CONTINUOUS
62
7
370
-3
100
AcDbLine
10
-61.7573239624
20
23.24260189
11
-78.242589644
21
6.75734116758
0
ARC
5
B5
100
AcDbEntity
8
PRINCIPAL
6
CONTINUOUS
62
7
370
-3
100
AcDbCircle
10
-57.5146832063
20
18.9999598576
40
6.000001
100
AcDbArc
50
90
51
134.999991382
0
LINE
5
B6
100
AcDbEntity
8
PRINCIPAL
6
CONTINUOUS
62
7
370
-3
100
AcDbLine
10
-42.4852594671
20
24.9999608576
11
-57.5146832063
21
24.9999608576
0
ARC
5
B7
100
AcDbEntity
8
PRINCIPAL
6
CONTINUOUS
62
7
370
-3
100
AcDbCircle
10
-42.4852594671
20
18.9999598576
40
6.000001
100
AcDbArc
50
45.000008618
51
90
0
LINE
5
B8
100
AcDbEntity
8
PRINCIPAL
6
CONTINUOUS
62
7
370
-3
100
AcDbLine
10
-21.7573530294
20
6.75734116758
11
-38.242618711
21
23.24260189
0
ARC
5
B9
100
AcDbEntity
8
PRINCIPAL
6
CONTINUOUS
62
7
370
-3
100
AcDbCircle
10
-25.9999937855
20
2.51469913458
40
6.000001
100
AcDbArc
50
360
51
45.000008618
0
LINE
5
BA
100
AcDbEntity
8
PRINCIPAL
6
CONTINUOUS
62
7
370
-3
100
AcDbLine
10
-19.9999927855
20
-2.51474994442
11
-19.9999927855
21
2.51469913458
0
ARC
5
BB
100
AcDbEntity
8
PRINCIPAL
6
CONTINUOUS
62
7
370
-3
100
AcDbCircle
10
-25.9999937855
20
-2.51474994442
40
6.000001
100
AcDbArc
50
314.999991382
51
360
0
LINE
5
BC
100
AcDbEntity
8
PRINCIPAL
6
CONTINUOUS
62
7
370
-3
100
AcDbLine
10
-38.242618711
20
-23.2426526994
11
-21.7573530294
21
-6.75739197742
0
ARC
5
BD
100
AcDbEntity
8
PRINCIPAL
6
CONTINUOUS
62
7
370
-3
100
AcDbCircle
10
-42.4852594671
20
-19.0000106674
40
6.000001
100
AcDbArc
50
270
51
314.999991382
0
LINE
5
BE
100
AcDbEntity
8
PRINCIPAL
6
CONTINUOUS
62
7
370
-3
100
AcDbLine
10
-57.5146832063
20
-25.0000116674
11
-42.4852594671
21
-25.0000116674
0
ARC
5
BF
100
AcDbEntity
8
PRINCIPAL
6
CONTINUOUS
62
7
370
-3
100
AcDbCircle
10
-57.5146832063
20
-19.0000106674
40
6.000001
100
AcDbArc
50
225.000008618
51
270
0
LINE
5
C0
100
AcDbEntity
8
PRINCIPAL
6
CONTINUOUS
62
7
370
-3
100
AcDbLine
10
-78.242589644
20
-6.75739197742
11
-61.7573239624
21
-23.2426526994
0
ARC
5
C1
100
AcDbEntity
8
PRINCIPAL
6
CONTINUOUS
62
7
370
-3
100
AcDbCircle
10
-73.999948888
20
-2.51474994442
40
6.000001
100
AcDbArc
50
180
51
225.000008618
0
LINE
5
C2
100
AcDbEntity
8
PRINCIPAL
6
CONTINUOUS
62
7
370
-3
100
AcDbLine
10
-79.999949888
20
2.51469913458
11
-79.999949888
21
-2.51474994442
0
ARC
5
C3
100
AcDbEntity
8
PRINCIPAL
6
CONTINUOUS
62
7
370
-3
100
AcDbCircle
10
-73.999948888
20
2.51469913458
40
6.000001
100
AcDbArc
50
134.999991382
51
180
0
ARC
5
C4
100
AcDbEntity
8
PRINCIPAL
6
CONTINUOUS
62
7
370
-3
100
AcDbCircle
10
-88.6339809909
20
22.4500409748
40
0.5
100
AcDbArc
50
90
51
150
0
ARC
5
C5
100
AcDbEntity
8
PRINCIPAL
6
CONTINUOUS
62
7
370
-3
100
AcDbCircle
10
-89.5000063946
20
22.9500409748
40
0.5
100
AcDbArc
50
120
51
330
0
ARC
5
C6
100
AcDbEntity
8
PRINCIPAL
6
CONTINUOUS
62
7
370
-3
100
AcDbCircle
10
-90.0000063946
20
23.8160663785
40
0.5
100
AcDbArc
50
300
51
360
0
LINE
5
C7
100
AcDbEntity
8
PRINCIPAL
6
CONTINUOUS
62
7
370
-3
100
AcDbLine
10
-89.5000063946
20
46.184017382
11
-89.5000063946
21
23.8160663785
0
ARC
5
C8
100
AcDbEntity
8
PRINCIPAL
6
CONTINUOUS
62
7
370
-3
100
AcDbCircle
10
-90.0000063946
20
46.184017382
40
0.5
100
AcDbArc
50
360
51
60
0
ARC
5
C9
100
AcDbEntity
8
PRINCIPAL
6
CONTINUOUS
62
7
370
-3
100
AcDbCircle
10
-89.5000063946
20
47.0500427858
40
0.5
100
AcDbArc
50
30
51
240
0
ARC
5
CA
100
AcDbEntity
8
PRINCIPAL
6
CONTINUOUS
62
7
370
-3
100
AcDbCircle
10
-88.6339809909
20
47.5500427858
40
0.5
100
AcDbArc
50
210
51
270
0
LINE
5
CB
100
AcDbEntity
8
PRINCIPAL
6
CONTINUOUS
62
7
370
-3
100
AcDbLine
10
-81.3660199874
20
47.0500427858
11
-88.6339809909
21
47.0500427858
0
ARC
5
CC
100
AcDbEntity
8
PRINCIPAL
6
CONTINUOUS
62
7
370
-3
100
AcDbCircle
10
-81.3660199874
20
47.5500427858
40
0.5
100
AcDbArc
50
270
51
330
0
ARC
5
CD
100
AcDbEntity
8
PRINCIPAL
6
CONTINUOUS
62
7
370
-3
100
AcDbCircle
10
-80.4999945836
20
47.0500427858
40
0.5
100
AcDbArc
50
300
51
150
0
ARC
5
CE
100
AcDbEntity
8
PRINCIPAL
6
CONTINUOUS
62
7
370
-3
100
AcDbCircle
10
-79.9999945836
20
46.184017382
40
0.5
100
AcDbArc
50
120
51
180
0
LINE
5
CF
100
AcDbEntity
8
PRINCIPAL
6
CONTINUOUS
62
7
370
-3
100
AcDbLine
10
-80.4999945836
20
23.8160663785
11
-80.4999945836
21
46.184017382
0
ARC
5
D0
100
AcDbEntity
8
PRINCIPAL
6
CONTINUOUS
62
7
370
-3
100
AcDbCircle
10
-79.9999945836
20
23.8160663785
40
0.5
100
AcDbArc
50
180
51
240
0
ARC
5
D1
100
AcDbEntity
8
PRINCIPAL
6
CONTINUOUS
62
7
370
-3
100
AcDbCircle
10
-80.4999945836
20
22.9500409748
40
0.5
100
AcDbArc
50
210
51
60
0
ARC
5
D2
100
AcDbEntity
8
PRINCIPAL
6
CONTINUOUS
62
7
370
-3
100
AcDbCircle
10
-81.3660199874
20
22.4500409748
40
0.5
100
AcDbArc
50
30
51
90
0
LINE
5
D3
100
AcDbEntity
8
PRINCIPAL
6
CONTINUOUS
62
7
370
-3
100
AcDbLine
10
-88.6339809909
20
22.9500409748
11
-81.3660199874
21
22.9500409748
0
ARC
5
D4
100
AcDbEntity
8
PRINCIPAL
6
CONTINUOUS
62
7
370
-3
100
AcDbCircle
10
-88.6339583258
20
-47.5499830144
40
0.5
100
AcDbArc
50
90
51
150
0
ARC
5
D5
100
AcDbEntity
8
PRINCIPAL
6
CONTINUOUS
62
7
370
-3
100
AcDbCircle
10
-89.4999837296
20
-47.0499830144
40
0.5
100
AcDbArc
50
120
51
330
0
ARC
5
D6
100
AcDbEntity
8
PRINCIPAL
6
CONTINUOUS
62
7
370
-3
100
AcDbCircle
10
-89.9999837296
20
-46.1839576104
40
0.5
100
AcDbArc
50
300
51
360
0
LINE
5
D7
100
AcDbEntity
8
PRINCIPAL
6
CONTINUOUS
62
7
370
-3
100
AcDbLine
10
-89.4999837296
20
-23.8160066074
11
-89.4999837296
21
-46.1839576104
0
ARC
5
D8
100
AcDbEntity
8
PRINCIPAL
6
CONTINUOUS
62
7
370
-3
100
AcDbCircle
10
-89.9999837296
20
-23.8160066074
40
0.5
100
AcDbArc
50
360
51
60
0
ARC
5
D9
100
AcDbEntity
8
PRINCIPAL
6
CONTINUOUS
62
7
370
-3
100
AcDbCircle
10
-89.4999837296
20
-22.9499812034
40
0.5
100
AcDbArc
50
30
51
240
0
ARC
5
DA
100
AcDbEntity
8
PRINCIPAL
6
CONTINUOUS
62
7
370
-3
100
AcDbCircle
10
-88.6339583258
20
-22.4499812034
40
0.5
100
AcDbArc
50
210
51
270
0
LINE
5
DB
100
AcDbEntity
8
PRINCIPAL
6
CONTINUOUS
62
7
370
-3
100
AcDbLine
10
-81.3659973223
20
-22.9499812034
11
-88.6339583258
21
-22.9499812034
0
ARC
5
DC
100
AcDbEntity
8
PRINCIPAL
6
CONTINUOUS
62
7
370
-3
100
AcDbCircle
10
-81.3659973223
20
-22.4499812034
40
0.5
100
AcDbArc
50
270
51
330
0
ARC
5
DD
100
AcDbEntity
8
PRINCIPAL
6
CONTINUOUS
62
7
370
-3
100
AcDbCircle
10
-80.4999719185
20
-22.9499812034
40
0.5
100
AcDbArc
50
300
51
150
0
ARC
5
DE
100
AcDbEntity
8
PRINCIPAL
6
CONTINUOUS
62
7
370
-3
100
AcDbCircle
10
-79.9999719185
20
-23.8160066074
40
0.5
100
AcDbArc
50
120
51
180
0
LINE
5
DF
100
AcDbEntity
8
PRINCIPAL
6
CONTINUOUS
62
7
370
-3
100
AcDbLine
10
-80.4999719185
20
-46.1839576104
11
-80.4999719185
21
-23.8160066074
0
ARC
5
E0
100
AcDbEntity
8
PRINCIPAL
6
CONTINUOUS
62
7
370
-3
100
AcDbCircle
10
-79.9999719185
20
-46.1839576104
40
0.5
100
AcDbArc
50
180
51
240
0
ARC
5
E1
100
AcDbEntity
8
PRINCIPAL
6
CONTINUOUS
62
7
370
-3
100
AcDbCircle
10
-80.4999719185
20
-47.0499830144
40
0.5
100
AcDbArc
50
210
51
60
0
ARC
5
E2
100
AcDbEntity
8
PRINCIPAL
6
CONTINUOUS
62
7
370
-3
100
AcDbCircle
10
-81.3659973223
20
-47.5499830144
40
0.5
100
AcDbArc
50
30
51
90
0
LINE
5
E3
100
AcDbEntity
8
PRINCIPAL
6
CONTINUOUS
62
7
370
-3
100
AcDbLine
10
-88.6339583258
20
-47.0499830144
11
-81.3659973223
21
-47.0499830144
0
LINE
5
E4
100
AcDbEntity
8
PRINCIPAL
6
CONTINUOUS
62
7
370
-3
100
AcDbLine
10
89.5000263615
20
23.8160290244
11
89.5000442165
21
46.1839800278
0
ARC
5
E5
100
AcDbEntity
8
PRINCIPAL
6
CONTINUOUS
62
7
370
-3
100
AcDbCircle
10
90.0000263615
20
23.8160286252
40
0.5
100
AcDbArc
50
179.999954264
51
239.999954264
0
ARC
5
E6
100
AcDbEntity
8
PRINCIPAL
6
CONTINUOUS
62
7
370
-3
100
AcDbCircle
10
89.5000256695
20
22.9500036206
40
0.5
100
AcDbArc
50
210
51
59.999954264
0
ARC
5
E7
100
AcDbEntity
8
PRINCIPAL
6
CONTINUOUS
62
7
370
-3
100
AcDbCircle
10
88.6340002665
20
22.4500036206
40
0.5
100
AcDbArc
50
30
51
90
0
LINE
5
E8
100
AcDbEntity
8
PRINCIPAL
6
CONTINUOUS
62
7
370
-3
100
AcDbLine
10
81.3660392625
20
22.9500036206
11
88.6340002665
21
22.9500036206
0
ARC
5
E9
100
AcDbEntity
8
PRINCIPAL
6
CONTINUOUS
62
7
370
-3
100
AcDbCircle
10
81.3660392625
20
22.4500036206
40
0.5
100
AcDbArc
50
90
51
150.000000001
0
ARC
5
EA
100
AcDbEntity
8
PRINCIPAL
6
CONTINUOUS
62
7
370
-3
100
AcDbCircle
10
80.5000138585
20
22.9500036206
40
0.50000000002
100
AcDbArc
50
119.999954263
51
330.000000001
0
ARC
5
EB
100
AcDbEntity
8
PRINCIPAL
6
CONTINUOUS
62
7
370
-3
100
AcDbCircle
10
80.0000145505
20
23.8160294235
40
0.499999999999
100
AcDbArc
50
299.999954263
51
359.999954261
0
LINE
5
EC
100
AcDbEntity
8
PRINCIPAL
6
CONTINUOUS
62
7
370
-3
100
AcDbLine
10
80.5000324055
20
46.1839800278
11
80.5000145505
21
23.8160290244
0
ARC
5
ED
100
AcDbEntity
8
PRINCIPAL
6
CONTINUOUS
62
7
370
-3
100
AcDbCircle
10
80.0000324055
20
46.1839804269
40
0.500000000001
100
AcDbArc
50
359.999954264
51
59.999954264
0
ARC
5
EE
100
AcDbEntity
8
PRINCIPAL
6
CONTINUOUS
62
7
370
-3
100
AcDbCircle
10
80.5000330965
20
47.0500054316
40
0.499999999999
100
AcDbArc
50
30
51
239.999954264
0
ARC
5
EF
100
AcDbEntity
8
PRINCIPAL
6
CONTINUOUS
62
7
370
-3
100
AcDbCircle
10
81.3660585005
20
47.5500054316
40
0.5
100
AcDbArc
50
210
51
270
0
LINE
5
F0
100
AcDbEntity
8
PRINCIPAL
6
CONTINUOUS
62
7
370
-3
100
AcDbLine
10
88.6340195035
20
47.0500054316
11
81.3660585005
21
47.0500054316
0
ARC
5
F1
100
AcDbEntity
8
PRINCIPAL
6
CONTINUOUS
62
7
370
-3
100
AcDbCircle
10
88.6340195035
20
47.5500054316
40
0.5
100
AcDbArc
50
270
51
330
0
ARC
5
F2
100
AcDbEntity
8
PRINCIPAL
6
CONTINUOUS
62
7
370
-3
100
AcDbCircle
10
89.5000449075
20
47.0500054316
40
0.499999999999
100
AcDbArc
50
299.999954264
51
150
0
ARC
5
F3
100
AcDbEntity
8
PRINCIPAL
6
CONTINUOUS
62
7
370
-3
100
AcDbCircle
10
90.0000442165
20
46.1839796287
40
0.499999999999
100
AcDbArc
50
119.999954264
51
179.999954264
0
CIRCLE
5
F4
100
AcDbEntity
8
PRINCIPAL
6
CONTINUOUS
62
7
370
-3
100
AcDbCircle
10
6.52584946226e-05
20
-114.499984778
40
1.6
0
CIRCLE
5
F5
100
AcDbEntity
8
PRINCIPAL
6
CONTINUOUS
62
7
370
-3
100
AcDbCircle
10
0.00046959149463
20
-104.500315464
40
1.6
0
LINE
5
F6
100
AcDbEntity
8
PRINCIPAL
6
CONTINUOUS
62
7
370
-3
100
AcDbLine
10
75.5144695915
20
84.9998845356
11
-75.5146304085
21
84.9998845356
0
CIRCLE
5
F7
100
AcDbEntity
8
PRINCIPAL
6
CONTINUOUS
62
7
370
-3
100
AcDbCircle
10
-104.5
20
104.5
40
1.25
0
CIRCLE
5
F8
100
AcDbEntity
8
PRINCIPAL
6
CONTINUOUS
62
7
370
-3
100
AcDbCircle
10
104.5
20
104.5
40
1.25
0
CIRCLE
5
F9
100
AcDbEntity
8
PRINCIPAL
6
CONTINUOUS
62
7
370
-3
100
AcDbCircle
10
-104.5
20
-104.5
40
1.25
0
CIRCLE
5
FA
100
AcDbEntity
8
PRINCIPAL
6
CONTINUOUS
62
7
370
-3
100
AcDbCircle
10
104.5
20
-104.5
40
1.25
0
CIRCLE
5
FB
100
AcDbEntity
8
PRINCIPAL
6
CONTINUOUS
62
7
370
-3
100
AcDbCircle
10
5.50046959149
20
-0.000315464417214
40
1.6
0
LINE
5
FC
100
AcDbEntity
8
PRINCIPAL
6
CONTINUOUS
62
7
370
-3
100
AcDbLine
10
7.2004695915
20
-9.90031546442
11
4.00046959149
21
-9.90031546442
0
LINE
5
FD
100
AcDbEntity
8
PRINCIPAL
6
CONTINUOUS
62
7
370
-3
100
AcDbLine
10
7.2004695915
20
-14.1003154644
11
7.2004695915
21
-9.90031546442
0
LINE
5
FE
100
AcDbEntity
8
PRINCIPAL
6
CONTINUOUS
62
7
370
-3
100
AcDbLine
10
4.00046959149
20
-14.1003154644
11
7.2004695915
21
-14.1003154644
0
LINE
5
FF
100
AcDbEntity
8
PRINCIPAL
6
CONTINUOUS
62
7
370
-3
100
AcDbLine
10
4.00046959149
20
-9.90031546442
11
4.00046959149
21
-14.1003154644
0
LINE
5
100
100
AcDbEntity
8
PRINCIPAL
6
CONTINUOUS
62
7
370
-3
100
AcDbLine
10
7.2004695915
20
9.90035643758
11
4.00046959149
21
9.90035643758
0
LINE
5
101
100
AcDbEntity
8
PRINCIPAL
6
CONTINUOUS
62
7
370
-3
100
AcDbLine
10
7.2004695915
20
14.1003564376
11
7.2004695915
21
9.90035643758
0
LINE
5
102
100
AcDbEntity
8
PRINCIPAL
6
CONTINUOUS
62
7
370
-3
100
AcDbLine
10
4.00046959149
20
14.1003564376
11
7.2004695915
21
14.1003564376
0
LINE
5
103
100
AcDbEntity
8
PRINCIPAL
6
CONTINUOUS
62
7
370
-3
100
AcDbLine
10
4.00046959149
20
9.90035643758
11
4.00046959149
21
14.1003564376
0
CIRCLE
5
104
100
AcDbEntity
8
PRINCIPAL
6
CONTINUOUS
62
7
370
-3
100
AcDbCircle
10
-5.49953040851
20
-0.000315464417211
40
1.6
0
LINE
5
105
100
AcDbEntity
8
PRINCIPAL
6
CONTINUOUS
62
7
370
-3
100
AcDbLine
10
-7.2003333535
20
-9.90031792442
11
-4.00033335351
21
-9.90031715242
0
LINE
5
106
100
AcDbEntity
8
PRINCIPAL
6
CONTINUOUS
62
7
370
-3
100
AcDbLine
10
-7.2003323405
20
-14.1003179244
11
-7.2003333535
21
-9.90031792442
0
LINE
5
107
100
AcDbEntity
8
PRINCIPAL
6
CONTINUOUS
62
7
370
-3
100
AcDbLine
10
-4.00033234051
20
-14.1003171524
11
-7.2003323405
21
-14.1003179244
0
LINE
5
108
100
AcDbEntity
8
PRINCIPAL
6
CONTINUOUS
62
7
370
-3
100
AcDbLine
10
-4.00033335351
20
-9.90031715242
11
-4.00033234051
21
-14.1003171524
0
LINE
5
109
100
AcDbEntity
8
PRINCIPAL
6
CONTINUOUS
62
7
370
-3
100
AcDbLine
10
-7.2003333535
20
9.90035889758
11
-4.00033335351
21
9.90035812558
0
LINE
5
10A
100
AcDbEntity
8
PRINCIPAL
6
CONTINUOUS
62
7
370
-3
100
AcDbLine
10
-7.2003323405
20
14.1003588979
11
-7.2003333535
21
9.90035889758
0
LINE
5
10B
100
AcDbEntity
8
PRINCIPAL
6
CONTINUOUS
62
7
370
-3
100
AcDbLine
10
-4.00033234051
20
14.1003581261
11
-7.2003323405
21
14.1003588979
0
LINE
5
10C
100
AcDbEntity
8
PRINCIPAL
6
CONTINUOUS
62
7
370
-3
100
AcDbLine
10
-4.00033335351
20
9.90035812558
11
-4.00033234051
21
14.1003581261
0
LINE
5
10D
100
AcDbEntity
8
PRINCIPAL
6
CONTINUOUS
62
7
370
-3
100
AcDbLine
10
-75.5000104369
20
30.0000454748
11
-77.5000104369
21
30.0000454748
0
LINE
5
10E
100
AcDbEntity
8
PRINCIPAL
6
CONTINUOUS
62
7
370
-3
100
AcDbLine
10
-92.5000104369
20
30.0000454748
11
-94.5000104369
21
30.0000454748
0
LINE
5
10F
100
AcDbEntity
8
PRINCIPAL
6
CONTINUOUS
62
7
370
-3
100
AcDbLine
10
-77.5000104369
20
40.0000454748
11
-75.5000104369
21
40.0000454748
0
LINE
5
110
100
AcDbEntity
8
PRINCIPAL
6
CONTINUOUS
62
7
370
-3
100
AcDbLine
10
-94.5000104369
20
40.0000454748
11
-92.5000104369
21
40.0000454748
0
LINE
5
111
100
AcDbEntity
8
PRINCIPAL
6
CONTINUOUS
62
7
370
-3
100
AcDbLine
10
-94.5000104369
20
24.0000454748
11
-92.5000104369
21
24.0000454748
0
LINE
5
112
100
AcDbEntity
8
PRINCIPAL
6
CONTINUOUS
62
7
370
-3
100
AcDbLine
10
-92.5000104369
20
46.0000454748
11
-94.5000104369
21
46.0000454748
0
LINE
5
113
100
AcDbEntity
8
PRINCIPAL
6
CONTINUOUS
62
7
370
-3
100
AcDbLine
10
-77.5000104369
20
24.0000454748
11
-75.5000104369
21
24.0000454748
0
LINE
5
114
100
AcDbEntity
8
PRINCIPAL
6
CONTINUOUS
62
7
370
-3
100
AcDbLine
10
-75.5000104369
20
46.0000454748
11
-77.5000104369
21
46.0000454748
0
LINE
5
115
100
AcDbEntity
8
PRINCIPAL
6
CONTINUOUS
62
7
370
-3
100
AcDbLine
10
-94.5000104369
20
30.0000454748
11
-94.5000104369
21
24.0000454748
0
LINE
5
116
100
AcDbEntity
8
PRINCIPAL
6
CONTINUOUS
62
7
370
-3
100
AcDbLine
10
-92.5000104369
20
24.0000454748
11
-92.5000104369
21
30.0000454748
0
LINE
5
117
100
AcDbEntity
8
PRINCIPAL
6
CONTINUOUS
62
7
370
-3
100
AcDbLine
10
-94.5000104369
20
46.0000454748
11
-94.5000104369
21
40.0000454748
0
LINE
5
118
100
AcDbEntity
8
PRINCIPAL
6
CONTINUOUS
62
7
370
-3
100
AcDbLine
10
-92.5000104369
20
40.0000454748
11
-92.5000104369
21
46.0000454748
0
LINE
5
119
100
AcDbEntity
8
PRINCIPAL
6
CONTINUOUS
62
7
370
-3
100
AcDbLine
10
-77.5000104369
20
30.0000454748
11
-77.5000104369
21
24.0000454748
0
LINE
5
11A
100
AcDbEntity
8
PRINCIPAL
6
CONTINUOUS
62
7
370
-3
100
AcDbLine
10
-75.5000104369
20
24.0000454748
11
-75.5000104369
21
30.0000454748
0
LINE
5
11B
100
AcDbEntity
8
PRINCIPAL
6
CONTINUOUS
62
7
370
-3
100
AcDbLine
10
-77.5000104369
20
46.0000454748
11
-77.5000104369
21
40.0000454748
0
LINE
5
11C
100
AcDbEntity
8
PRINCIPAL
6
CONTINUOUS
62
7
370
-3
100
AcDbLine
10
-75.5000104369
20
40.0000454748
11
-75.5000104369
21
46.0000454748
0
LINE
5
11D
100
AcDbEntity
8
PRINCIPAL
6
CONTINUOUS
62
7
370
-3
100
AcDbLine
10
94.5000098167
20
30.0000081206
11
92.5000098167
21
30.0000081206
0
LINE
5
11E
100
AcDbEntity
8
PRINCIPAL
6
CONTINUOUS
62
7
370
-3
100
AcDbLine
10
77.5000098167
20
30.0000081206
11
75.5000098167
21
30.0000081206
0
LINE
5
11F
100
AcDbEntity
8
PRINCIPAL
6
CONTINUOUS
62
7
370
-3
100
AcDbLine
10
92.5000098167
20
40.0000081206
11
94.5000098167
21
40.0000081206
0
LINE
5
120
100
AcDbEntity
8
PRINCIPAL
6
CONTINUOUS
62
7
370
-3
100
AcDbLine
10
75.5000098167
20
40.0000081206
11
77.5000098167
21
40.0000081206
0
LINE
5
121
100
AcDbEntity
8
PRINCIPAL
6
CONTINUOUS
62
7
370
-3
100
AcDbLine
10
75.5000098167
20
24.0000081206
11
77.5000098167
21
24.0000081206
0
LINE
5
122
100
AcDbEntity
8
PRINCIPAL
6
CONTINUOUS
62
7
370
-3
100
AcDbLine
10
77.5000098167
20
46.0000081206
11
75.5000098167
21
46.0000081206
0
LINE
5
123
100
AcDbEntity
8
PRINCIPAL
6
CONTINUOUS
62
7
370
-3
100
AcDbLine
10
92.5000098167
20
24.0000081206
11
94.5000098167
21
24.0000081206
0
LINE
5
124
100
AcDbEntity
8
PRINCIPAL
6
CONTINUOUS
62
7
370
-3
100
AcDbLine
10
94.5000098167
20
46.0000081206
11
92.5000098167
21
46.0000081206
0
LINE
5
125
100
AcDbEntity
8
PRINCIPAL
6
CONTINUOUS
62
7
370
-3
100
AcDbLine
10
75.5000098167
20
30.0000081206
11
75.5000098167
21
24.0000081206
0
LINE
5
126
100
AcDbEntity
8
PRINCIPAL
6
CONTINUOUS
62
7
370
-3
100
AcDbLine
10
77.5000098167
20
24.0000081206
11
77.5000098167
21
30.0000081206
0
LINE
5
127
100
AcDbEntity
8
PRINCIPAL
6
CONTINUOUS
62
7
370
-3
100
AcDbLine
10
75.5000098167
20
46.0000081206
11
75.5000098167
21
40.0000081206
0
LINE
5
128
100
AcDbEntity
8
PRINCIPAL
6
CONTINUOUS
62
7
370
-3
100
AcDbLine
10
77.5000098167
20
40.0000081206
11
77.5000098167
21
46.0000081206
0
LINE
5
129
100
AcDbEntity
8
PRINCIPAL
6
CONTINUOUS
62
7
370
-3
100
AcDbLine
10
92.5000098167
20
30.0000081206
11
92.5000098167
21
24.0000081206
0
LINE
5
12A
100
AcDbEntity
8
PRINCIPAL
6
CONTINUOUS
62
7
370
-3
100
AcDbLine
10
94.5000098167
20
24.0000081206
11
94.5000098167
21
30.0000081206
0
LINE
5
12B
100
AcDbEntity
8
PRINCIPAL
6
CONTINUOUS
62
7
370
-3
100
AcDbLine
10
92.5000098167
20
46.0000081206
11
92.5000098167
21
40.0000081206
0
LINE
5
12C
100
AcDbEntity
8
PRINCIPAL
6
CONTINUOUS
62
7
370
-3
100
AcDbLine
10
94.5000098167
20
40.0000081206
11
94.5000098167
21
46.0000081206
0
LINE
5
12D
100
AcDbEntity
8
PRINCIPAL
6
CONTINUOUS
62
7
370
-3
100
AcDbLine
10
94.4999293637
20
-40.0000158684
11
92.4999293637
21
-40.0000158684
0
LINE
5
12E
100
AcDbEntity
8
PRINCIPAL
6
CONTINUOUS
62
7
370
-3
100
AcDbLine
10
77.4999293637
20
-40.0000158684
11
75.4999293637
21
-40.0000158684
0
LINE
5
12F
100
AcDbEntity
8
PRINCIPAL
6
CONTINUOUS
62
7
370
-3
100
AcDbLine
10
92.4999293637
20
-30.0000158684
11
94.4999293637
21
-30.0000158684
0
LINE
5
130
100
AcDbEntity
8
PRINCIPAL
6
CONTINUOUS
62
7
370
-3
100
AcDbLine
10
75.4999293637
20
-30.0000158684
11
77.4999293637
21
-30.0000158684
0
LINE
5
131
100
AcDbEntity
8
PRINCIPAL
6
CONTINUOUS
62
7
370
-3
100
AcDbLine
10
75.4999293637
20
-46.0000158684
11
77.4999293637
21
-46.0000158684
0
LINE
5
132
100
AcDbEntity
8
PRINCIPAL
6
CONTINUOUS
62
7
370
-3
100
AcDbLine
10
77.4999293637
20
-24.0000158684
11
75.4999293637
21
-24.0000158684
0
LINE
5
133
100
AcDbEntity
8
PRINCIPAL
6
CONTINUOUS
62
7
370
-3
100
AcDbLine
10
92.4999293637
20
-46.0000158684
11
94.4999293637
21
-46.0000158684
0
LINE
5
134
100
AcDbEntity
8
PRINCIPAL
6
CONTINUOUS
62
7
370
-3
100
AcDbLine
10
94.4999293637
20
-24.0000158684
11
92.4999293637
21
-24.0000158684
0
LINE
5
135
100
AcDbEntity
8
PRINCIPAL
6
CONTINUOUS
62
7
370
-3
100
AcDbLine
10
75.4999293637
20
-40.0000158684
11
75.4999293637
21
-46.0000158684
0
LINE
5
136
100
AcDbEntity
8
PRINCIPAL
6
CONTINUOUS
62
7
370
-3
100
AcDbLine
10
77.4999293637
20
-46.0000158684
11
77.4999293637
21
-40.0000158684
0
LINE
5
137
100
AcDbEntity
8
PRINCIPAL
6
CONTINUOUS
62
7
370
-3
100
AcDbLine
10
75.4999293637
20
-24.0000158684
11
75.4999293637
21
-30.0000158684
0
LINE
5
138
100
AcDbEntity
8
PRINCIPAL
6
CONTINUOUS
62
7
370
-3
100
AcDbLine
10
77.4999293637
20
-30.0000158684
11
77.4999293637
21
-24.0000158684
0
LINE
5
139
100
AcDbEntity
8
PRINCIPAL
6
CONTINUOUS
62
7
370
-3
100
AcDbLine
10
92.4999293637
20
-40.0000158684
11
92.4999293637
21
-46.0000158684
0
LINE
5
13A
100
AcDbEntity
8
PRINCIPAL
6
CONTINUOUS
62
7
370
-3
100
AcDbLine
10
94.4999293637
20
-46.0000158684
11
94.4999293637
21
-40.0000158684
0
LINE
5
13B
100
AcDbEntity
8
PRINCIPAL
6
CONTINUOUS
62
7
370
-3
100
AcDbLine
10
92.4999293637
20
-24.0000158684
11
92.4999293637
21
-30.0000158684
0
LINE
5
13C
100
AcDbEntity
8
PRINCIPAL
6
CONTINUOUS
62
7
370
-3
100
AcDbLine
10
94.4999293637
20
-30.0000158684
11
94.4999293637
21
-24.0000158684
0
LINE
5
13D
100
AcDbEntity
8
PRINCIPAL
6
CONTINUOUS
62
7
370
-3
100
AcDbLine
10
-75.4999877719
20
-39.9999785144
11
-77.4999877719
21
-39.9999785144
0
LINE
5
13E
100
AcDbEntity
8
PRINCIPAL
6
CONTINUOUS
62
7
370
-3
100
AcDbLine
10
-92.4999877719
20
-39.9999785144
11
-94.4999877719
21
-39.9999785144
0
LINE
5
13F
100
AcDbEntity
8
PRINCIPAL
6
CONTINUOUS
62
7
370
-3
100
AcDbLine
10
-77.4999877719
20
-29.9999785144
11
-75.4999877719
21
-29.9999785144
0
LINE
5
140
100
AcDbEntity
8
PRINCIPAL
6
CONTINUOUS
62
7
370
-3
100
AcDbLine
10
-94.4999877719
20
-29.9999785144
11
-92.4999877719
21
-29.9999785144
0
LINE
5
141
100
AcDbEntity
8
PRINCIPAL
6
CONTINUOUS
62
7
370
-3
100
AcDbLine
10
-94.4999877719
20
-45.9999785144
11
-92.4999877719
21
-45.9999785144
0
LINE
5
142
100
AcDbEntity
8
PRINCIPAL
6
CONTINUOUS
62
7
370
-3
100
AcDbLine
10
-92.4999877719
20
-23.9999785144
11
-94.4999877719
21
-23.9999785144
0
LINE
5
143
100
AcDbEntity
8
PRINCIPAL
6
CONTINUOUS
62
7
370
-3
100
AcDbLine
10
-77.4999877719
20
-45.9999785144
11
-75.4999877719
21
-45.9999785144
0
LINE
5
144
100
AcDbEntity
8
PRINCIPAL
6
CONTINUOUS
62
7
370
-3
100
AcDbLine
10
-75.4999877719
20
-23.9999785144
11
-77.4999877719
21
-23.9999785144
0
LINE
5
145
100
AcDbEntity
8
PRINCIPAL
6
CONTINUOUS
62
7
370
-3
100
AcDbLine
10
-94.4999877719
20
-39.9999785144
11
-94.4999877719
21
-45.9999785144
0
LINE
5
146
100
AcDbEntity
8
PRINCIPAL
6
CONTINUOUS
62
7
370
-3
100
AcDbLine
10
-92.4999877719
20
-45.9999785144
11
-92.4999877719
21
-39.9999785144
0
LINE
5
147
100
AcDbEntity
8
PRINCIPAL
6
CONTINUOUS
62
7
370
-3
100
AcDbLine
10
-94.4999877719
20
-23.9999785144
11
-94.4999877719
21
-29.9999785144
0
LINE
5
148
100
AcDbEntity
8
PRINCIPAL
6
CONTINUOUS
62
7
370
-3
100
AcDbLine
10
-92.4999877719
20
-29.9999785144
11
-92.4999877719
21
-23.9999785144
0
LINE
5
149
100
AcDbEntity
8
PRINCIPAL
6
CONTINUOUS
62
7
370
-3
100
AcDbLine
10
-77.4999877719
20
-39.9999785144
11
-77.4999877719
21
-45.9999785144
0
LINE
5
14A
100
AcDbEntity
8
PRINCIPAL
6
CONTINUOUS
62
7
370
-3
100
AcDbLine
10
-75.4999877719
20
-45.9999785144
11
-75.4999877719
21
-39.9999785144
0
LINE
5
14B
100
AcDbEntity
8
PRINCIPAL
6
CONTINUOUS
62
7
370
-3
100
AcDbLine
10
-77.4999877719
20
-23.9999785144
11
-77.4999877719
21
-29.9999785144
0
LINE
5
14C
100
AcDbEntity
8
PRINCIPAL
6
CONTINUOUS
62
7
370
-3
100
AcDbLine
10
-75.4999877719
20
-29.9999785144
11
-75.4999877719
21
-23.9999785144
0
ENDSEC
0
SECTION
2
OBJECTS
0
DICTIONARY
5
C
330
0
100
AcDbDictionary
281
1
3
ACAD_GROUP
350
D
0
DICTIONARY
5
D
330
C
100
AcDbDictionary
281
1
0
ENDSEC
0
EOF
